# Blender MTL File: 'None'
# Material Count: 1

newmtl Material.002
Ns 92.156863
Ka 1.000000 1.000000 1.000000
Kd 0.000000 0.949064 1.000000
Ks 1.000000 0.000000 0.577211
Ke 0.000000 0.000000 0.000000
Ni 1.000000
d 1.000000
illum 2
