# Blender MTL File: 'None'
# Material Count: 2

newmtl Material.001
Ns 94.117647
Ka 1.000000 1.000000 1.000000
Kd 0.611740 0.504086 1.000000
Ks 1.000000 0.611956 0.052950
Ke 0.000000 0.000000 0.000000
Ni 1.000000
d 1.000000
illum 2

newmtl Material.002
Ns 92.156863
Ka 1.000000 1.000000 1.000000
Kd 0.009580 0.290616 0.640000
Ks 0.500000 0.500000 0.500000
Ke 0.000000 0.000000 0.000000
Ni 1.000000
d 1.000000
illum 2
